<?xml version="1.0" encoding="UTF-8" standalone="no"?>
<svg
   xmlns:dc="http://purl.org/dc/elements/1.1/"
   xmlns:cc="http://creativecommons.org/ns#"
   xmlns:rdf="http://www.w3.org/1999/02/22-rdf-syntax-ns#"
   xmlns:svg="http://www.w3.org/2000/svg"
   xmlns="http://www.w3.org/2000/svg"
   xmlns:sodipodi="http://sodipodi.sourceforge.net/DTD/sodipodi-0.dtd"
   xmlns:inkscape="http://www.inkscape.org/namespaces/inkscape"
   viewBox="0 0 400 400.00001"
   height="400"
   width="400"
   xml:space="preserve"
   version="1.1"
   id="svg2"
   inkscape:version="0.48.4 r9939"
   sodipodi:docname="Twitter.svg"><sodipodi:namedview
     pagecolor="#ffffff"
     bordercolor="#666666"
     borderopacity="1"
     objecttolerance="10"
     gridtolerance="10"
     guidetolerance="10"
     inkscape:pageopacity="0"
     inkscape:pageshadow="2"
     inkscape:window-width="640"
     inkscape:window-height="480"
     id="namedview12"
     showgrid="false"
     inkscape:zoom="1.6995229"
     inkscape:cx="137.82179"
     inkscape:cy="214.74413"
     inkscape:current-layer="svg2" /><metadata
     id="metadata8"><rdf:RDF><cc:Work
         rdf:about=""><dc:format>image/svg+xml</dc:format><dc:type
           rdf:resource="http://purl.org/dc/dcmitype/StillImage" /><dc:title></dc:title></cc:Work></rdf:RDF></metadata><defs
     id="defs6"><clipPath
       id="clipPath18"
       clipPathUnits="userSpaceOnUse"><path
         id="path20"
         d="M 0,2221.78 0,0 l 2733.9,0 0,2221.78 -2733.9,0 z"
         inkscape:connector-curvature="0" /></clipPath></defs><path
     id="path22"
     style="fill:#000000;fill-opacity:1;fill-rule:nonzero;stroke:none"
     d="m 144.3484,321.90151 c -34.75804,0 -67.110063,-10.18892 -94.348404,-27.65149 4.814979,0.56831 9.714397,0.859 14.682432,0.859 28.835839,0 55.374632,-9.84001 76.439152,-26.3472 -26.93317,-0.49676 -49.663008,-18.29112 -57.495116,-42.7441 3.757929,0.71886 7.61352,1.1038 11.579832,1.1038 5.612644,0 11.050474,-0.75189 16.215184,-2.15823 -28.156368,-5.6539 -49.372214,-30.53023 -49.372214,-60.35137 0,-0.26007 7.69e-4,-0.51684 0.0052,-0.77362 8.298914,4.6099 17.789203,7.37847 27.878196,7.6978 -16.514869,-11.03699 -27.380555,-29.87601 -27.380555,-51.22902 0,-11.28059 3.034346,-21.852299 8.332382,-30.942609 30.357183,37.236919 75.708773,61.740369 126.861633,64.307039 -1.04906,-4.50456 -1.59443,-9.20224 -1.59443,-14.02612 0,-33.98991 27.55843,-61.547242 61.55053,-61.547242 17.70219,0 33.69802,7.475035 44.92593,19.437068 14.01954,-2.760891 27.19193,-7.883244 39.08373,-14.936904 -4.59563,14.372875 -14.35422,26.434768 -27.06244,34.052458 12.45035,-1.48799 24.31252,-4.79645 35.3506,-9.69165 -8.25195,12.3428 -18.68759,23.18336 -30.71217,31.86107 0.11851,2.63909 0.17777,5.29354 0.17777,7.96226 0,81.33304 -61.90717,175.11906 -175.1172,175.11906"
     inkscape:connector-curvature="0" /></svg>